[
    {
        "extension": "js",
        "name" : "PMDynaform",
        "minify" : false,
        "construct" : {
            "base_file" : "src/PMDynaform.js"
        },
        "target_path": "build/js/",
        "files": [      
            "src/PMDynaform.js",
            "src/core/Utils.js",
            "src/core/Validators.js",
            "src/core/Project.js",
            "src/core/Build.js",
            "src/core/Formula.js",
            "src/core/PMRest.js", 
            
            "src/util/ArrayList.js",

            "src/proxy/RestProxy.js",

            "src/views/Validator.js",
            "src/views/Form.js",
            "src/views/Panel.js",
            "src/views/Field.js",
            "src/views/Button.js",
            "src/views/DropDown.js",
            "src/views/Radio.js",
            "src/views/Submit.js",
            "src/views/TextArea.js",
            "src/views/Text.js",
            "src/views/File.js",
            "src/views/CheckBox.js",
            "src/views/Datetime.js",
            "src/views/Suggest.js",
            "src/views/Link.js",
            "src/views/Label.js",
            "src/views/Title.js",
            "src/views/Empty.js",
            "src/views/Qrcode_mobile.js",
            
            
            "src/models/Validator.js",
            "src/models/Form.js",
            "src/models/Panel.js",
            "src/models/Field.js",
            "src/models/Button.js",
            "src/models/DropDown.js",           
            "src/models/Radio.js",
            "src/models/Submit.js",
            "src/models/TextArea.js",
            "src/models/Text.js",
            "src/models/File.js",
            "src/models/CheckBox.js",
            "src/models/Datetime.js",
            "src/models/Suggest.js",
            "src/models/Link.js",
            "src/models/Label.js",
            "src/models/Title.js",
            "src/models/Empty.js",
            "src/models/Qrcode_mobile.js"               
        ]
    },
    {
        "extension": "css",
        "name" : "PMDynaform",
        "minify" : false,
        "target_path": "build/css/",
        "files": [
            "src/stylesheets/css/bootstrapCss.css",
            "src/stylesheets/css/ValidationField.css",
            "src/stylesheets/css/ContainerPMDynaform.css",
            "src/stylesheets/css/Label.css",
            "src/stylesheets/css/FileField.css",
            "src/stylesheets/css/DateTimePicker.css"           
        ]  
    }
]
